%YAML 1.1
%TAG !u! tag:unity3d.com,2011:
--- !u!74 &7400000
AnimationClip:
  m_ObjectHideFlags: 0
  m_CorrespondingSourceObject: {fileID: 0}
  m_PrefabInstance: {fileID: 0}
  m_PrefabAsset: {fileID: 0}
  m_Name: 1s
  serializedVersion: 6
  m_Legacy: 0
  m_Compressed: 0
  m_UseHighQualityCurve: 1
  m_RotationCurves: []
  m_CompressedRotationCurves: []
  m_EulerCurves: []
  m_PositionCurves: []
  m_ScaleCurves: []
  m_FloatCurves: []
  m_PPtrCurves:
  - curve:
    - time: 0
      value: {fileID: 2100000, guid: 61992fbf8f4703b4bbe83697b07b878d, type: 2}
    - time: 1
      value: {fileID: 2100000, guid: 9d3208987ae05464c95fffeb33683b96, type: 2}
    - time: 2
      value: {fileID: 2100000, guid: 2d4246676886e0d4a91bd7556e599f23, type: 2}
    - time: 3
      value: {fileID: 2100000, guid: e4508bc25a4faef468bfdb798592f282, type: 2}
    - time: 4
      value: {fileID: 2100000, guid: ca010a75ea185744ebcdf7a72743c736, type: 2}
    - time: 5
      value: {fileID: 2100000, guid: 65520b1989c631c4a81d212e97899417, type: 2}
    - time: 6
      value: {fileID: 2100000, guid: 61992fbf8f4703b4bbe83697b07b878d, type: 2}
    attribute: m_Materials.Array.data[0]
    path: Quad
    classID: 23
    script: {fileID: 0}
  m_SampleRate: 60
  m_WrapMode: 0
  m_Bounds:
    m_Center: {x: 0, y: 0, z: 0}
    m_Extent: {x: 0, y: 0, z: 0}
  m_ClipBindingConstant:
    genericBindings:
    - serializedVersion: 2
      path: 922149575
      attribute: 0
      script: {fileID: 0}
      typeID: 23
      customType: 21
      isPPtrCurve: 1
    pptrCurveMapping:
    - {fileID: 2100000, guid: 61992fbf8f4703b4bbe83697b07b878d, type: 2}
    - {fileID: 2100000, guid: 9d3208987ae05464c95fffeb33683b96, type: 2}
    - {fileID: 2100000, guid: 2d4246676886e0d4a91bd7556e599f23, type: 2}
    - {fileID: 2100000, guid: e4508bc25a4faef468bfdb798592f282, type: 2}
    - {fileID: 2100000, guid: ca010a75ea185744ebcdf7a72743c736, type: 2}
    - {fileID: 2100000, guid: 65520b1989c631c4a81d212e97899417, type: 2}
    - {fileID: 2100000, guid: 61992fbf8f4703b4bbe83697b07b878d, type: 2}
  m_AnimationClipSettings:
    serializedVersion: 2
    m_AdditiveReferencePoseClip: {fileID: 0}
    m_AdditiveReferencePoseTime: 0
    m_StartTime: 0
    m_StopTime: 6.016667
    m_OrientationOffsetY: 0
    m_Level: 0
    m_CycleOffset: 0
    m_HasAdditiveReferencePose: 0
    m_LoopTime: 1
    m_LoopBlend: 0
    m_LoopBlendOrientation: 0
    m_LoopBlendPositionY: 0
    m_LoopBlendPositionXZ: 0
    m_KeepOriginalOrientation: 0
    m_KeepOriginalPositionY: 1
    m_KeepOriginalPositionXZ: 0
    m_HeightFromFeet: 0
    m_Mirror: 0
  m_EditorCurves: []
  m_EulerEditorCurves: []
  m_HasGenericRootTransform: 0
  m_HasMotionFloatCurves: 0
  m_Events: []
