%YAML 1.1
%TAG !u! tag:unity3d.com,2011:
--- !u!21 &2100000
Material:
  serializedVersion: 6
  m_ObjectHideFlags: 0
  m_CorrespondingSourceObject: {fileID: 0}
  m_PrefabInstance: {fileID: 0}
  m_PrefabAsset: {fileID: 0}
  m_Name: LED3
  m_Shader: {fileID: 4800000, guid: 933532a4fcc9baf4fa0491de14d08ed7, type: 3}
  m_ShaderKeywords: _EMISSION
  m_LightmapFlags: 2
  m_EnableInstancingVariants: 0
  m_DoubleSidedGI: 1
  m_CustomRenderQueue: 2000
  stringTagMap:
    RenderType: Opaque
  disabledShaderPasses: []
  m_SavedProperties:
    serializedVersion: 3
    m_TexEnvs:
    - Texture2D_0b70190c450a4342ab4f4a426b1eaf09:
        m_Texture: {fileID: 2800000, guid: 7a81ba4cd306441db9267d6b1340d044, type: 3}
        m_Scale: {x: 1, y: 1}
        m_Offset: {x: 0, y: 0}
    - Texture2D_1627220F:
        m_Texture: {fileID: 2800000, guid: 40995f7a6e4074451a7646b65ff61a06, type: 3}
        m_Scale: {x: 1, y: 1}
        m_Offset: {x: 0, y: 0}
    - Texture2D_38C18792:
        m_Texture: {fileID: 2800000, guid: a7640f15f7fe0074c9112958018e5b39, type: 3}
        m_Scale: {x: 1, y: 1}
        m_Offset: {x: 0, y: 0}
    - Texture2D_697f222641f04446a9ff6c6929cd4f84:
        m_Texture: {fileID: 0}
        m_Scale: {x: 1, y: 1}
        m_Offset: {x: 0, y: 0}
    - Texture2D_7a86fc08d4f4453bab8f62dd990e067a:
        m_Texture: {fileID: 2800000, guid: 78bbb74e77f194cb09d583ed3be6658c, type: 3}
        m_Scale: {x: 1, y: 1}
        m_Offset: {x: 0, y: 0}
    - Texture2D_89152ed9783a433ea8ce3c853cc0d050:
        m_Texture: {fileID: 2800000, guid: cdb43915b2cf04400a9107000ca8ab26, type: 3}
        m_Scale: {x: 1, y: 1}
        m_Offset: {x: 0, y: 0}
    - _BaseMap:
        m_Texture: {fileID: 2800000, guid: 5b4fe01fa0293e9469d4951eaed8724b, type: 3}
        m_Scale: {x: 1, y: 0.08}
        m_Offset: {x: 0, y: 0.47}
    - _BumpMap:
        m_Texture: {fileID: 0}
        m_Scale: {x: 1, y: 1}
        m_Offset: {x: 0, y: 0}
    - _DetailAlbedoMap:
        m_Texture: {fileID: 0}
        m_Scale: {x: 1, y: 1}
        m_Offset: {x: 0, y: 0}
    - _DetailMask:
        m_Texture: {fileID: 0}
        m_Scale: {x: 1, y: 1}
        m_Offset: {x: 0, y: 0}
    - _DetailNormalMap:
        m_Texture: {fileID: 0}
        m_Scale: {x: 1, y: 1}
        m_Offset: {x: 0, y: 0}
    - _EmissionMap:
        m_Texture: {fileID: 2800000, guid: 5b4fe01fa0293e9469d4951eaed8724b, type: 3}
        m_Scale: {x: 1, y: 1}
        m_Offset: {x: 0, y: 0}
    - _MainTex:
        m_Texture: {fileID: 2800000, guid: 5b4fe01fa0293e9469d4951eaed8724b, type: 3}
        m_Scale: {x: 1, y: 0.08}
        m_Offset: {x: 0, y: 0.47}
    - _MetallicGlossMap:
        m_Texture: {fileID: 0}
        m_Scale: {x: 1, y: 1}
        m_Offset: {x: 0, y: 0}
    - _OcclusionMap:
        m_Texture: {fileID: 0}
        m_Scale: {x: 1, y: 1}
        m_Offset: {x: 0, y: 0}
    - _ParallaxMap:
        m_Texture: {fileID: 0}
        m_Scale: {x: 1, y: 1}
        m_Offset: {x: 0, y: 0}
    - _SpecGlossMap:
        m_Texture: {fileID: 0}
        m_Scale: {x: 1, y: 1}
        m_Offset: {x: 0, y: 0}
    - unity_Lightmaps:
        m_Texture: {fileID: 0}
        m_Scale: {x: 1, y: 1}
        m_Offset: {x: 0, y: 0}
    - unity_LightmapsInd:
        m_Texture: {fileID: 0}
        m_Scale: {x: 1, y: 1}
        m_Offset: {x: 0, y: 0}
    - unity_ShadowMasks:
        m_Texture: {fileID: 0}
        m_Scale: {x: 1, y: 1}
        m_Offset: {x: 0, y: 0}
    m_Floats:
    - Boolean_01765f30d9d74d1190a4e55644f0b8d6: 0
    - Boolean_0d279ae80dac4220b33ee12419bd594a: 0
    - Boolean_1: 0
    - Boolean_137f1829ca6c4d17b308614723a8850e: 0
    - Boolean_2: 0
    - Boolean_3: 0
    - Boolean_561609faf1d54f74aac4710e66f2e6c8: 0
    - Boolean_95a4d6def2f04c17b9cb2cb67095de23: 0
    - Boolean_ac6b855195934dac9f3d046a71afd37f: 0
    - Boolean_c3782b0697064514a7360cffa0eea85e: 0
    - Boolean_c9acbda48e5541a987f4f39f828b59fb: 0
    - Boolean_c9acbda48e5541a987f4f39f828b59fb_1: 0
    - Boolean_cc9fdfb7078c47729b8b8b6afcac8f63: 0
    - OffsetLEDX: 0
    - OffsetLEDY: 0
    - OffsetVideoX: 0
    - OffsetVideoY: 0
    - TilingLEDX: 100
    - TilingLEDY: 100
    - TilingVideoX: 1
    - TilingVideoY: 1
    - Vector1_04710da2add54fb687913d1bf5a6b7b2: 40
    - Vector1_0e5521ea1d3b43c9b391f882dd386542: 0
    - Vector1_148355EB: 25
    - Vector1_1b4999dc50f64539ad7ba246a2467ec4: 0
    - Vector1_3ea4ac5985e045fe9bb1473433a925a9: 1
    - Vector1_9587ac5421c44de1b677a4ce4f167768: 5
    - Vector1_9e373ab16aa94797a01308f2281a7c19: 0
    - Vector1_A78CEBC: 1
    - Vector1_CC37D8CB: 0.3
    - Vector1_D4BB5679: 1
    - Vector1_a1f9648bff084cf4959c672e512a732d: 5
    - _AlphaClip: 0
    - _Blend: 0
    - _BumpScale: 1
    - _ClearCoatMask: 0
    - _ClearCoatSmoothness: 0
    - _Cull: 0
    - _Cutoff: 0.5
    - _DetailAlbedoMapScale: 1
    - _DetailNormalMapScale: 1
    - _DstBlend: 0
    - _EnvironmentReflections: 1
    - _GlossMapScale: 0
    - _Glossiness: 0
    - _GlossyReflections: 0
    - _Metallic: 0.52
    - _OcclusionStrength: 1
    - _Parallax: 0.005
    - _QueueControl: 0
    - _QueueOffset: 0
    - _ReceiveShadows: 1
    - _Smoothness: 0.704
    - _SmoothnessTextureChannel: 0
    - _SpecularHighlights: 1
    - _SrcBlend: 1
    - _Surface: 0
    - _UV: 0
    - _WorkflowMode: 1
    - _ZWrite: 1
    m_Colors:
    - Color_941038397df743edb971942aa6a65b41: {r: 1.4980392, g: 1.4980392, b: 1.4980392, a: 0}
    - Color_B7810F92: {r: 0.8627451, g: 1.6, b: 4, a: 0}
    - Vector2_1f5503ae61c44981b84ca9443ff00b07: {r: 1, g: 0, b: 0, a: 0}
    - Vector2_93349e72d44149aa88199921d50fe950: {r: 1, g: 1, b: 0, a: 0}
    - Vector2_ae16db7065034506a055993c41bbe614: {r: 0, g: 0, b: 0, a: 0}
    - Vector2_ea01576358e3410993f3b88f3d7e3a6b: {r: 50, g: 50, b: 0, a: 0}
    - _BaseColor: {r: 1, g: 1, b: 1, a: 1}
    - _Color: {r: 1, g: 1, b: 1, a: 1}
    - _EmissionColor: {r: 0.49416864, g: 0.49416864, b: 0.49416864, a: 1}
    - _SpecColor: {r: 0.19999996, g: 0.19999996, b: 0.19999996, a: 1}
  m_BuildTextureStacks: []
--- !u!114 &3643184218438530441
MonoBehaviour:
  m_ObjectHideFlags: 11
  m_CorrespondingSourceObject: {fileID: 0}
  m_PrefabInstance: {fileID: 0}
  m_PrefabAsset: {fileID: 0}
  m_GameObject: {fileID: 0}
  m_Enabled: 1
  m_EditorHideFlags: 0
  m_Script: {fileID: 11500000, guid: d0353a89b1f911e48b9e16bdc9f2e058, type: 3}
  m_Name: 
  m_EditorClassIdentifier: 
  version: 5
